shipping Restriction
Prod:
Error: Shipping restriction Pop Up
catalog SKU property: siteSkuRegions
region: NYC
SKU: 41000687
ZIP: 10453,10457,10460,10458
Error: Shipping Restriction Message
catalog SKU property: nonShippableStates
SKU: 17302612
State: PR,PO
Local:
siteSkuRegions: Chicago
SKU: 15013982
ZIP: 60606
Address: 600 market,Chicago,IL 60606
nonShippableStates: 
SKU: 17302612, 18822695
State: PO, PR
Address: 1234 Ashford Avenue Santurce San Juan PR 00907

DEV2:
nonShippableStates: 
SKU: 17302612, 13488720, 40694863
State: PO, PR
Address: 1234 Ashford Avenue Santurce San Juan PR 00907

SKU: 13488720, 40694863
State: VI
Address: Sterling Street KINGSHILL VI 00802, Sterling Street KINGSHILL AA 34038